﻿{
  "$schema": "http://json.schemastore.org/launchsettings.json",
  "profiles": {
    "Crnc.Oms.Sales.WebApi": {
      "commandName": "Project",
      "launchBrowser": true,
      "launchUrl": "swagger/index.html",
      "applicationUrl": "http://localhost:8099",
      "environmentVariables": {
        "ASPNETCORE_ENVIRONMENT": "Development"
      }
    }
  }
}

